<svg xmlns="http://www.w3.org/2000/svg" xmlns:xlink="http://www.w3.org/1999/xlink" width="21" height="21" viewBox="0 0 21 21">
    <defs>
        <path id="a" d="M13.804 13.873c-.004.667-.451.777-.713.784l-11.149.002c-.21 0-.376-.058-.495-.172-.17-.168-.258-.48-.258-.9V6.511h12.62c0 2.646.003 6.425-.005 7.36zM1.19 3.829c0-.612.238-.874.797-.877h1.141v.86a.59.59 0 0 0 .595.585.592.592 0 0 0 .594-.586v-.86H10.591v.86a.59.59 0 0 0 .594.586.59.59 0 0 0 .594-.586v-.86h1.193c.29.01.496.083.626.224.187.196.214.516.21.616v1.55H1.19V3.83zm13.808.015c.004-.162.004-.889-.51-1.45-.247-.266-.698-.587-1.495-.613h-1.213V.885A.59.59 0 0 0 11.185.3a.59.59 0 0 0-.595.585v.896H4.316V.885A.592.592 0 0 0 3.722.3a.59.59 0 0 0-.595.585v.896H1.982c-.96.006-1.986.547-1.982 2.05 0 .096.004 9.16 0 9.753 0 .751.202 1.334.606 1.73.345.337.805.515 1.332.515h.004l11.145-.002h.004c.761 0 1.895-.518 1.902-1.947.012-1.444.004-9.633.004-10.036z"/>
    </defs>
    <use fill="#0B0B0B" fill-rule="evenodd" transform="translate(3 2.7)" xlink:href="#a"/>
</svg>
