<?xml version="1.0" encoding="utf-8"?>
<!-- Generator: Adobe Illustrator 21.1.0, SVG Export Plug-In . SVG Version: 6.00 Build 0)  -->
<svg version="1.1" id="Слой_1" xmlns="http://www.w3.org/2000/svg" xmlns:xlink="http://www.w3.org/1999/xlink" x="0px" y="0px"
	 viewBox="0 0 21 21" style="enable-background:new 0 0 21 21;" xml:space="preserve">
<style type="text/css">
	.st0{fill:#0D66F9;}
</style>
<path id="a" d="M10.4,9.9c-1.2,0-2.2-1-2.2-2.2c0-1.2,1-2.2,2.2-2.2c1.2,0,2.2,1,2.2,2.2C12.6,8.9,11.7,9.9,10.4,9.9z M15,9.1
	c-0.1,0.5-0.5,1.4-0.9,1.9c-0.2,0.3-2.6,4.5-3.6,6.3l-3.9-6.9l0,0c-0.1-0.2-0.3-0.5-0.4-1C6,8.8,5.9,8.2,5.9,7.6
	C5.9,5,8,2.9,10.5,2.9c2.7,0,4.5,2.2,4.7,4.3C15.2,7.7,15.2,8.3,15,9.1z M16.5,7c-0.3-3.1-2.9-5.5-6-5.5c-3.3,0-5.9,2.7-5.9,6.1
	c0,0.7,0.1,1.4,0.3,2.1C5,10.3,5.3,10.8,5.4,11l0,0l0,0l4.5,8.2c0.1,0.2,0.3,0.3,0.5,0.3h0c0.2,0,0.4-0.1,0.5-0.3
	c0-0.1,4.1-7.1,4.3-7.4c0.4-0.6,0.9-1.7,1-2.3C16.5,8.5,16.5,7.7,16.5,7z"/>
<g>
	<path id="a_1_" class="st0" d="M10.4,9.9c-1.2,0-2.2-1-2.2-2.2c0-1.2,1-2.2,2.2-2.2c1.2,0,2.2,1,2.2,2.2
		C12.6,8.9,11.7,9.9,10.4,9.9z M15,9.1c-0.1,0.5-0.5,1.4-0.9,1.9c-0.2,0.3-2.6,4.5-3.6,6.3l-3.9-6.9l0,0c-0.1-0.2-0.3-0.5-0.4-1
		C6,8.8,5.9,8.2,5.9,7.6C5.9,5,8,2.9,10.5,2.9c2.7,0,4.5,2.2,4.7,4.3C15.2,7.7,15.2,8.3,15,9.1z M16.5,7c-0.3-3.1-2.9-5.5-6-5.5
		c-3.3,0-5.9,2.7-5.9,6.1c0,0.7,0.1,1.4,0.3,2.1C5,10.3,5.3,10.8,5.4,11l0,0l0,0l4.5,8.2c0.1,0.2,0.3,0.3,0.5,0.3h0
		c0.2,0,0.4-0.1,0.5-0.3c0-0.1,4.1-7.1,4.3-7.4c0.4-0.6,0.9-1.7,1-2.3C16.5,8.5,16.5,7.7,16.5,7z"/>
</g>
</svg>
