<?xml version="1.0" encoding="utf-8"?>
<!-- Generator: Adobe Illustrator 21.1.0, SVG Export Plug-In . SVG Version: 6.00 Build 0)  -->
<svg version="1.1" id="Слой_1" xmlns="http://www.w3.org/2000/svg" xmlns:xlink="http://www.w3.org/1999/xlink" x="0px" y="0px"
	 viewBox="0 0 21 21" style="enable-background:new 0 0 21 21;" xml:space="preserve">
<path id="a" d="M12.1,14.2c-1.4,0-2.7-0.6-3.7-1.6c0,0,0,0,0,0s0,0,0,0c-1-1-1.6-2.4-1.6-3.9c0-3,2.4-5.4,5.3-5.4
	c2.9,0,5.3,2.4,5.3,5.4C17.4,11.8,15,14.2,12.1,14.2L12.1,14.2z M12.1,2C8.4,2,5.5,5,5.5,8.8c0,1.6,0.6,3.2,1.5,4.3l-4.5,4.6
	c-0.3,0.3-0.3,0.7,0,0.9c0.1,0.1,0.3,0.2,0.5,0.2c0.2,0,0.3-0.1,0.5-0.2l4.5-4.6c1.2,1,2.6,1.5,4.2,1.5c3.6,0,6.6-3,6.6-6.8
	C18.7,5,15.7,2,12.1,2L12.1,2z"/>
<g>
	<path id="a_1_" d="M12.1,14.2c-1.4,0-2.7-0.6-3.7-1.6c0,0,0,0,0,0s0,0,0,0c-1-1-1.6-2.4-1.6-3.9c0-3,2.4-5.4,5.3-5.4
		c2.9,0,5.3,2.4,5.3,5.4C17.4,11.8,15,14.2,12.1,14.2L12.1,14.2z M12.1,2C8.4,2,5.5,5,5.5,8.8c0,1.6,0.6,3.2,1.5,4.3l-4.5,4.6
		c-0.3,0.3-0.3,0.7,0,0.9c0.1,0.1,0.3,0.2,0.5,0.2c0.2,0,0.3-0.1,0.5-0.2l4.5-4.6c1.2,1,2.6,1.5,4.2,1.5c3.6,0,6.6-3,6.6-6.8
		C18.7,5,15.7,2,12.1,2L12.1,2z"/>
</g>
</svg>
